[
    {
        "name": "CollectionOrder",
        "policy": "OR('buyer-realestate-com.member', 'broker-realestate-com.member')",
        "requiredPeerCount": 1,
        "maxPeerCount": 1,
        "blockToLive": 10000,
        "memberOnlyRead": true
    }
]
